{
  "users": [
    {
      "name": "Phill",
      "email": "ftarter@ccli.com",
      "catalogs": [
        {
          "catalogName": "foo",
          "songs": []
        }
      ]
    }
  ],
  "songs": [
    {
      "song": {
        "songCatalog": {
          "catalogName": "foo",
          "createNew": true
        },
        "details": {
          "songTitle": "Song Title",
          "author": "Franklin Tarter",
          "year": "1999"
        },
        "lyrics": {
          "lyrics": "Lyrics",
          "language": "english"
        }
      }
    },
    {
      "song": {
        "songCatalog": {
          "catalogName": "foo",
          "createNew": true
        },
        "details": {
          "songTitle": "Song Title",
          "author": "Franklin Tarter",
          "year": "1999"
        },
        "lyrics": {
          "lyrics": "Lyrics",
          "language": "english"
        }
      }
    },
    {
      "song": {
        "songCatalog": {
          "catalogName": "foo",
          "createNew": true
        },
        "details": {
          "songTitle": "Song Title",
          "author": "Franklin Tarter",
          "year": "1999"
        },
        "lyrics": {
          "lyrics": "Lyrics",
          "language": "english"
        }
      }
    },
    {
      "song": {
        "songCatalog": {
          "catalogName": "foo",
          "createNew": true
        },
        "details": {
          "songTitle": "Song",
          "author": "Me",
          "year": "1234"
        },
        "lyrics": {
          "lyrics": "foo bar",
          "language": "English"
        }
      }
    },
    {
      "song": {
        "songCatalog": {
          "catalogName": "foo",
          "createNew": true
        },
        "details": {
          "songTitle": "asd",
          "author": "asdf",
          "year": "asdf"
        },
        "lyrics": {
          "lyrics": "asdf",
          "language": "English"
        }
      }
    },
    {
      "song": {
        "songCatalog": {
          "catalogName": "foo",
          "createNew": true
        },
        "details": {
          "songTitle": "asdf",
          "author": "asdf",
          "year": "asdf"
        },
        "lyrics": {
          "lyrics": "asdf",
          "language": "English"
        }
      }
    },
    {
      "song": {
        "songCatalog": {
          "catalogName": "foo",
          "createNew": true
        },
        "details": {
          "songTitle": "asd",
          "author": "asdf",
          "year": "asdf"
        },
        "lyrics": {
          "lyrics": "asdf",
          "language": "English"
        }
      }
    },
    {
      "song": {
        "songCatalog": {
          "catalogName": "foo",
          "createNew": true
        },
        "details": {
          "songTitle": "asdf",
          "author": "sd",
          "year": "asd"
        },
        "lyrics": {
          "lyrics": "asdf",
          "language": "English"
        }
      }
    }
  ]
}